single_cycle.vcd
$date
	Wed May 13 11:44:27 2026
$end
$version
	Icarus Verilog
$end
$timescale
	1s
$end
$scope module Single_Cycle_Top_Tb $end
$var wire 32 ! MACResult [31:0] $end
$var wire 1 " MAC_Enable $end
$var wire 32 # RD_Instr [31:0] $end
$var wire 32 $ Result [31:0] $end
$var reg 1 % clk $end
$var reg 1 & rst $end
$var integer 32 ' cycle_count [31:0] $end
$scope module Single_Cycle_Top $end
$var wire 1 % clk $end
$var wire 32 ( debug_RD1 [31:0] $end
$var wire 32 ) debug_RD2 [31:0] $end
$var wire 32 * debug_Reg5 [31:0] $end
$var wire 1 & rst $end
$var wire 32 + SrcB [31:0] $end
$var wire 2 , ResultSrc [1:0] $end
$var wire 32 - Result [31:0] $end
$var wire 1 . RegWrite $end
$var wire 32 / ReadData [31:0] $end
$var wire 32 0 RD_Instr [31:0] $end
$var wire 32 1 RD2_Top [31:0] $end
$var wire 32 2 RD1_Top [31:0] $end
$var wire 32 3 PC_Top [31:0] $end
$var wire 32 4 PCPlus4 [31:0] $end
$var wire 1 5 MemWrite $end
$var wire 1 6 MAC_Enable $end
$var wire 32 7 MACResult [31:0] $end
$var wire 32 8 Imm_Ext_Top [31:0] $end
$var wire 2 9 ImmSrc [1:0] $end
$var wire 1 : ALUSrc $end
$var wire 32 ; ALUResult [31:0] $end
$var wire 3 < ALUControl_Top [2:0] $end
$scope module ALU $end
$var wire 1 = Carry $end
$var wire 1 > OverFlow $end
$var wire 1 ? Zero $end
$var wire 32 @ Sum [31:0] $end
$var wire 32 A Result [31:0] $end
$var wire 1 B Negative $end
$var wire 1 C Cout $end
$var wire 32 D B [31:0] $end
$var wire 3 E ALUControl [2:0] $end
$var wire 32 F A [31:0] $end
$upscope $end
$scope module Control_Unit_Top $end
$var wire 7 G Op [6:0] $end
$var wire 3 H funct3 [2:0] $end
$var wire 7 I funct7 [6:0] $end
$var wire 2 J ResultSrc [1:0] $end
$var wire 1 . RegWrite $end
$var wire 1 5 MemWrite $end
$var wire 1 6 MAC_Enable $end
$var wire 2 K ImmSrc [1:0] $end
$var wire 1 L Branch $end
$var wire 1 : ALUSrc $end
$var wire 2 M ALUOp [1:0] $end
$var wire 3 N ALUControl [2:0] $end
$scope module ALU_Decoder $end
$var wire 3 O funct3 [2:0] $end
$var wire 7 P funct7 [6:0] $end
$var wire 7 Q op [6:0] $end
$var wire 2 R ALUOp [1:0] $end
$var wire 3 S ALUControl [2:0] $end
$upscope $end
$scope module Main_Decoder $end
$var wire 7 T Op [6:0] $end
$var wire 2 U ResultSrc [1:0] $end
$var wire 1 . RegWrite $end
$var wire 1 5 MemWrite $end
$var wire 1 6 MAC_Enable $end
$var wire 2 V ImmSrc [1:0] $end
$var wire 1 L Branch $end
$var wire 1 : ALUSrc $end
$var wire 2 W ALUOp [1:0] $end
$upscope $end
$upscope $end
$scope module Data_Memory $end
$var wire 32 X A [31:0] $end
$var wire 1 5 WE $end
$var wire 1 % clk $end
$var wire 1 & rst $end
$var wire 32 Y WD [31:0] $end
$var wire 32 Z RD [31:0] $end
$upscope $end
$scope module Instruction_Memory $end
$var wire 1 & rst $end
$var wire 32 [ RD [31:0] $end
$var wire 32 \ A [31:0] $end
$upscope $end
$scope module MatrixALU $end
$var wire 32 ] acc_in [31:0] $end
$var wire 1 6 enable $end
$var wire 32 ^ opA [31:0] $end
$var wire 32 _ opB [31:0] $end
$var wire 64 ` product [63:0] $end
$var wire 32 a inB [31:0] $end
$var wire 32 b inA [31:0] $end
$var reg 1 c negative $end
$var reg 32 d result [31:0] $end
$var reg 1 e zero $end
$upscope $end
$scope module Mux_DataMemory_to_Register $end
$var wire 32 f a [31:0] $end
$var wire 32 g b [31:0] $end
$var wire 32 h c [31:0] $end
$var wire 2 i s [1:0] $end
$var reg 32 j out [31:0] $end
$upscope $end
$scope module Mux_Register_to_ALU $end
$var wire 32 k c [31:0] $end
$var wire 2 l s [1:0] $end
$var wire 32 m b [31:0] $end
$var wire 32 n a [31:0] $end
$var reg 32 o out [31:0] $end
$upscope $end
$scope module PC $end
$var wire 1 % clk $end
$var wire 1 & rst $end
$var wire 32 p PC_Next [31:0] $end
$var reg 32 q PC [31:0] $end
$upscope $end
$scope module PC_Adder $end
$var wire 32 r a [31:0] $end
$var wire 32 s b [31:0] $end
$var wire 32 t c [31:0] $end
$upscope $end
$scope module Register_File $end
$var wire 5 u A1 [4:0] $end
$var wire 5 v A2 [4:0] $end
$var wire 5 w A3 [4:0] $end
$var wire 32 x WD3 [31:0] $end
$var wire 1 . WE3 $end
$var wire 1 % clk $end
$var wire 1 & rst $end
$var wire 32 y RD2 [31:0] $end
$var wire 32 z RD1 [31:0] $end
$var integer 32 { i [31:0] $end
$upscope $end
$scope module Sign_Extend $end
$var wire 1 | ImmSrc $end
$var wire 32 } In [31:0] $end
$var wire 32 ~ Imm_Ext [31:0] $end
$upscope $end
$upscope $end
$upscope $end
$enddefinitions $end
#0
$dumpvars
b0 ~
b0 }
0|
b100000 {
b0 z
b0 y
b0 x
b0 w
b0 v
b0 u
bx t
b100 s
bx r
bx q
bx p
b0 o
b0 n
b0 m
b0 l
b0 k
b0 j
b0 i
b0 h
b0 g
b0 f
1e
b0 d
0c
b0 b
b0 a
b0 `
b0 _
b0 ^
b0 ]
bx \
b0 [
b0 Z
b0 Y
b0 X
b0 W
b0 V
b0 U
b0 T
b0 S
b0 R
b0 Q
b0 P
b0 O
b0 N
b0 M
0L
b0 K
b0 J
b0 I
b0 H
b0 G
b0 F
b0 E
b0 D
0C
0B
b0 A
b0 @
1?
0>
0=
b0 <
b0 ;
0:
b0 9
b0 8
b0 7
06
05
bx 4
bx 3
b0 2
b0 1
b0 0
b0 /
0.
b0 -
b0 ,
b0 +
b110 *
b0 )
b0 (
b0 '
0&
0%
b0 $
b0 #
0"
b0 !
$end
#50
b100 4
b100 p
b100 t
b0 3
b0 \
b0 q
b0 r
1%
#100
0%
#150
0?
b10000 ;
b10000 A
b10000 X
b10000 f
b10000 @
b111100 $
b111100 -
b111100 j
b111100 x
b1010 +
b1010 D
b1010 o
1.
b10 ,
b10 J
b10 U
b10 i
0e
b111100 !
b111100 7
b111100 d
b111100 h
b111100 `
b1010 _
b1010 )
b1010 1
b1010 Y
b1010 a
b1010 n
b1010 y
b110 ^
b110 (
b110 2
b110 F
b110 b
b110 z
b100110 8
b100110 m
b100110 ~
1"
16
b1 I
b1 P
b1011 G
b1011 Q
b1011 T
b101 w
b110 v
b101 u
bx /
bx Z
bx g
b10011000101000001010001011 #
b10011000101000001010001011 0
b10011000101000001010001011 [
b10011000101000001010001011 }
1&
1%
#200
b1000110 ;
b1000110 A
b1000110 X
b1000110 f
b1001011000 $
b1001011000 -
b1001011000 j
b1001011000 x
b1000110 @
b1001011000 !
b1001011000 7
b1001011000 d
b1001011000 h
b1001011000 `
b111100 ^
b111100 (
b111100 2
b111100 F
b111100 b
b111100 z
b111100 *
0%
#250
1?
b0 ;
b0 A
b0 X
b0 f
b0 @
b1 l
1:
b0 $
b0 -
b0 j
b0 x
b0 +
b0 D
b0 o
0.
1|
b0 ,
b0 J
b0 U
b0 i
1e
b0 !
b0 7
b0 d
b0 h
b111100 _
b111100 )
b111100 1
b111100 Y
b111100 a
b111100 n
b111100 y
b0 `
b0 ^
b0 (
b0 2
b0 F
b0 b
b0 z
b0 8
b0 m
b0 ~
b1 9
b1 K
b1 V
15
0"
06
b0 I
b0 P
b10 H
b10 O
b100011 G
b100011 Q
b100011 T
b0 w
b101 v
b0 u
b10100000010000000100011 #
b10100000010000000100011 0
b10100000010000000100011 [
b10100000010000000100011 }
b1000 4
b1000 p
b1000 t
b100 3
b100 \
b100 q
b100 r
b1 '
1%
#300
0%
#350
b0 l
0:
0|
b0 _
b0 )
b0 1
b0 Y
b0 a
b0 n
b0 y
b0 9
b0 K
b0 V
05
b0 H
b0 O
b1101111 G
b1101111 Q
b1101111 T
b0 v
b1101111 #
b1101111 0
b1101111 [
b1101111 }
b111100 /
b111100 Z
b111100 g
b1100 4
b1100 p
b1100 t
b1000 3
b1000 \
b1000 q
b1000 r
b10 '
1%
#400
0%
#450
x>
xB
bx /
bx Z
bx g
x?
bx $
bx -
bx j
bx x
x=
bx ;
bx A
bx X
bx f
bx @
xC
bx <
bx E
bx N
bx S
bx +
bx D
bx o
x.
x|
b0x l
x:
bx _
bx )
bx 1
bx Y
bx a
bx n
bx y
bx `
bx ^
bx (
bx 2
bx F
bx b
bx z
bx 8
bx m
bx ~
bx 9
bx K
bx V
x5
bx ,
bx J
bx U
bx i
xL
bx M
bx R
bx W
x"
x6
bx I
bx P
bx H
bx O
bx G
bx Q
bx T
bx w
bx v
bx u
bx #
bx 0
bx [
bx }
b10000 4
b10000 p
b10000 t
b1100 3
b1100 \
b1100 q
b1100 r
b11 '
1%
#500
0%
#550
b10100 4
b10100 p
b10100 t
b10000 3
b10000 \
b10000 q
b10000 r
b100 '
1%
#600
0%
#650
b11000 4
b11000 p
b11000 t
b10100 3
b10100 \
b10100 q
b10100 r
b101 '
1%
