single_cycle.vcd
$date
	Thu May 14 10:58:13 2026
$end
$version
	Icarus Verilog
$end
$timescale
	1s
$end
$scope module Single_Cycle_Top_Tb $end
$var wire 32 ! MACResult [31:0] $end
$var wire 1 " MAC_Enable $end
$var wire 32 # RD_Instr [31:0] $end
$var wire 32 $ Result [31:0] $end
$var reg 1 % clk $end
$var reg 1 & rst $end
$var integer 32 ' cycle_count [31:0] $end
$var integer 32 ( mac_count [31:0] $end
$var integer 32 ) reg_write_count [31:0] $end
$var integer 32 * total_instructions [31:0] $end
$scope module Single_Cycle_Top $end
$var wire 1 % clk $end
$var wire 32 + debug_RD1 [31:0] $end
$var wire 32 , debug_RD2 [31:0] $end
$var wire 32 - debug_Reg5 [31:0] $end
$var wire 1 & rst $end
$var wire 32 . SrcB [31:0] $end
$var wire 2 / ResultSrc [1:0] $end
$var wire 32 0 Result [31:0] $end
$var wire 1 1 RegWrite $end
$var wire 32 2 ReadData [31:0] $end
$var wire 32 3 RD_Instr [31:0] $end
$var wire 32 4 RD4_Top [31:0] $end
$var wire 32 5 RD2_Top [31:0] $end
$var wire 32 6 RD1_Top [31:0] $end
$var wire 32 7 PC_Top [31:0] $end
$var wire 32 8 PCPlus4 [31:0] $end
$var wire 1 9 MemWrite $end
$var wire 1 : MAC_Enable $end
$var wire 32 ; MACResult [31:0] $end
$var wire 32 < Imm_Ext_Top [31:0] $end
$var wire 2 = ImmSrc [1:0] $end
$var wire 1 > ALUSrc $end
$var wire 32 ? ALUResult [31:0] $end
$var wire 3 @ ALUControl_Top [2:0] $end
$scope module ALU $end
$var wire 1 A Carry $end
$var wire 1 B OverFlow $end
$var wire 1 C Zero $end
$var wire 32 D Sum [31:0] $end
$var wire 32 E Result [31:0] $end
$var wire 1 F Negative $end
$var wire 1 G Cout $end
$var wire 32 H B [31:0] $end
$var wire 3 I ALUControl [2:0] $end
$var wire 32 J A [31:0] $end
$upscope $end
$scope module Control_Unit_Top $end
$var wire 7 K Op [6:0] $end
$var wire 3 L funct3 [2:0] $end
$var wire 7 M funct7 [6:0] $end
$var wire 2 N ResultSrc [1:0] $end
$var wire 1 1 RegWrite $end
$var wire 1 9 MemWrite $end
$var wire 1 : MAC_Enable $end
$var wire 2 O ImmSrc [1:0] $end
$var wire 1 P Branch $end
$var wire 1 > ALUSrc $end
$var wire 2 Q ALUOp [1:0] $end
$var wire 3 R ALUControl [2:0] $end
$scope module ALU_Decoder $end
$var wire 3 S funct3 [2:0] $end
$var wire 7 T funct7 [6:0] $end
$var wire 7 U op [6:0] $end
$var wire 2 V ALUOp [1:0] $end
$var wire 3 W ALUControl [2:0] $end
$upscope $end
$scope module Main_Decoder $end
$var wire 7 X Op [6:0] $end
$var wire 2 Y ResultSrc [1:0] $end
$var wire 1 1 RegWrite $end
$var wire 1 9 MemWrite $end
$var wire 1 : MAC_Enable $end
$var wire 2 Z ImmSrc [1:0] $end
$var wire 1 P Branch $end
$var wire 1 > ALUSrc $end
$var wire 2 [ ALUOp [1:0] $end
$upscope $end
$upscope $end
$scope module Data_Memory $end
$var wire 32 \ A [31:0] $end
$var wire 1 9 WE $end
$var wire 1 % clk $end
$var wire 1 & rst $end
$var wire 32 ] WD [31:0] $end
$var wire 32 ^ RD [31:0] $end
$upscope $end
$scope module Instruction_Memory $end
$var wire 1 & rst $end
$var wire 32 _ RD [31:0] $end
$var wire 32 ` A [31:0] $end
$upscope $end
$scope module MatrixALU $end
$var wire 1 : enable $end
$var wire 32 a opA [31:0] $end
$var wire 32 b opB [31:0] $end
$var wire 64 c product [63:0] $end
$var wire 32 d inB [31:0] $end
$var wire 32 e inA [31:0] $end
$var wire 32 f acc_in [31:0] $end
$var reg 1 g negative $end
$var reg 32 h result [31:0] $end
$var reg 1 i zero $end
$upscope $end
$scope module Mux_DataMemory_to_Register $end
$var wire 32 j a [31:0] $end
$var wire 32 k b [31:0] $end
$var wire 32 l c [31:0] $end
$var wire 2 m s [1:0] $end
$var reg 32 n out [31:0] $end
$upscope $end
$scope module Mux_Register_to_ALU $end
$var wire 32 o c [31:0] $end
$var wire 2 p s [1:0] $end
$var wire 32 q b [31:0] $end
$var wire 32 r a [31:0] $end
$var reg 32 s out [31:0] $end
$upscope $end
$scope module PC $end
$var wire 1 % clk $end
$var wire 1 & rst $end
$var wire 32 t PC_Next [31:0] $end
$var reg 32 u PC [31:0] $end
$upscope $end
$scope module PC_Adder $end
$var wire 32 v a [31:0] $end
$var wire 32 w b [31:0] $end
$var wire 32 x c [31:0] $end
$upscope $end
$scope module Register_File $end
$var wire 5 y A1 [4:0] $end
$var wire 5 z A2 [4:0] $end
$var wire 5 { A3 [4:0] $end
$var wire 5 | A4 [4:0] $end
$var wire 32 } WD3 [31:0] $end
$var wire 1 1 WE3 $end
$var wire 1 % clk $end
$var wire 1 & rst $end
$var wire 32 ~ RD4 [31:0] $end
$var wire 32 !" RD2 [31:0] $end
$var wire 32 "" RD1 [31:0] $end
$var integer 32 #" i [31:0] $end
$upscope $end
$scope module Sign_Extend $end
$var wire 1 $" ImmSrc $end
$var wire 32 %" In [31:0] $end
$var wire 32 &" Imm_Ext [31:0] $end
$upscope $end
$upscope $end
$upscope $end
$enddefinitions $end
#0
$dumpvars
b0 &"
b0 %"
0$"
b100000 #"
b0 ""
b0 !"
b0 ~
b0 }
b0 |
b0 {
b0 z
b0 y
bx x
b100 w
bx v
bx u
bx t
b0 s
b0 r
b0 q
b0 p
b0 o
b0 n
b0 m
b0 l
b0 k
b0 j
1i
b0 h
0g
b0 f
b0 e
b0 d
b0 c
b0 b
b0 a
bx `
b0 _
b0 ^
b0 ]
b0 \
b0 [
b0 Z
b0 Y
b0 X
b0 W
b0 V
b0 U
b0 T
b0 S
b0 R
b0 Q
0P
b0 O
b0 N
b0 M
b0 L
b0 K
b0 J
b0 I
b0 H
0G
0F
b0 E
b0 D
1C
0B
0A
b0 @
b0 ?
0>
b0 =
b0 <
b0 ;
0:
09
bx 8
bx 7
b0 6
b0 5
b0 4
b0 3
b0 2
01
b0 0
b0 /
b0 .
b110 -
b0 ,
b0 +
b0 *
b0 )
b0 (
b0 '
0&
0%
b0 $
b0 #
0"
b0 !
$end
#50
b100 8
b100 t
b100 x
b0 7
b0 `
b0 u
b0 v
1%
#100
0%
#150
0C
b10000 ?
b10000 E
b10000 \
b10000 j
b10000 D
b1000010 $
b1000010 0
b1000010 n
b1000010 }
b1010 .
b1010 H
b1010 s
11
b10 /
b10 N
b10 Y
b10 m
0i
b1000010 !
b1000010 ;
b1000010 h
b1000010 l
b110 4
b110 f
b110 ~
b111100 c
b1010 b
b1010 ,
b1010 5
b1010 ]
b1010 d
b1010 r
b1010 !"
b110 a
b110 +
b110 6
b110 J
b110 e
b110 ""
b100110 <
b100110 q
b100110 &"
1"
1:
b1 M
b1 T
b1011 K
b1011 U
b1011 X
b101 |
b101 {
b110 z
b101 y
bx 2
bx ^
bx k
b10011000101000001010001011 #
b10011000101000001010001011 3
b10011000101000001010001011 _
b10011000101000001010001011 %"
1&
1%
#200
b1001100 ?
b1001100 E
b1001100 \
b1001100 j
b1001100 D
b1011010110 $
b1011010110 0
b1011010110 n
b1011010110 }
b1011010110 !
b1011010110 ;
b1011010110 h
b1011010110 l
b1010010100 c
b1000010 a
b1000010 +
b1000010 6
b1000010 J
b1000010 e
b1000010 ""
b1000010 4
b1000010 f
b1000010 ~
b1000010 -
0%
#250
b1000 8
b1000 t
b1000 x
b100 7
b100 `
b100 u
b100 v
b1 )
b1 (
b1 *
1%
#300
b1011100000 ?
b1011100000 E
b1011100000 \
b1011100000 j
b1011100000 D
b1111100110010 $
b1111100110010 0
b1111100110010 n
b1111100110010 }
b1111100110010 !
b1111100110010 ;
b1111100110010 h
b1111100110010 l
b1110001011100 c
b1011010110 a
b1011010110 +
b1011010110 6
b1011010110 J
b1011010110 e
b1011010110 ""
b1011010110 4
b1011010110 f
b1011010110 ~
b1011010110 -
0%
#350
b1100 8
b1100 t
b1100 x
b1000 7
b1000 `
b1000 u
b1000 v
b10 )
b10 (
b10 *
1%
#400
b1111100111100 ?
b1111100111100 E
b1111100111100 \
b1111100111100 j
b1111100111100 D
b10101011100100110 $
b10101011100100110 0
b10101011100100110 n
b10101011100100110 }
b10101011100100110 !
b10101011100100110 ;
b10101011100100110 h
b10101011100100110 l
b10011011111110100 c
b1111100110010 a
b1111100110010 +
b1111100110010 6
b1111100110010 J
b1111100110010 e
b1111100110010 ""
b1111100110010 4
b1111100110010 f
b1111100110010 ~
b1111100110010 -
0%
#450
b10000 8
b10000 t
b10000 x
b1100 7
b1100 `
b1100 u
b1100 v
b11 )
b11 (
b11 *
1%
#500
b10101011100110000 ?
b10101011100110000 E
b10101011100110000 \
b10101011100110000 j
b10101011100110000 D
b11101011111010100010 $
b11101011111010100010 0
b11101011111010100010 n
b11101011111010100010 }
b11101011111010100010 !
b11101011111010100010 ;
b11101011111010100010 h
b11101011111010100010 l
b11010110011101111100 c
b10101011100100110 a
b10101011100100110 +
b10101011100100110 6
b10101011100100110 J
b10101011100100110 e
b10101011100100110 ""
b10101011100100110 4
b10101011100100110 f
b10101011100100110 ~
b10101011100100110 -
0%
#550
1C
b0 ?
b0 E
b0 \
b0 j
b0 D
b1 p
1>
b0 $
b0 0
b0 n
b0 }
b0 .
b0 H
b0 s
01
1$"
b0 /
b0 N
b0 Y
b0 m
1i
b0 !
b0 ;
b0 h
b0 l
b0 4
b0 f
b0 ~
b10101011100100110 b
b10101011100100110 ,
b10101011100100110 5
b10101011100100110 ]
b10101011100100110 d
b10101011100100110 r
b10101011100100110 !"
b0 c
b0 a
b0 +
b0 6
b0 J
b0 e
b0 ""
b0 <
b0 q
b0 &"
b1 =
b1 O
b1 Z
19
0"
0:
b0 M
b0 T
b10 L
b10 S
b100011 K
b100011 U
b100011 X
b0 |
b0 {
b101 z
b0 y
b10100000010000000100011 #
b10100000010000000100011 3
b10100000010000000100011 _
b10100000010000000100011 %"
b10100 8
b10100 t
b10100 x
b10000 7
b10000 `
b10000 u
b10000 v
b100 )
b100 (
b100 *
1%
#600
0%
#650
b0 p
0>
0$"
b0 b
b0 ,
b0 5
b0 ]
b0 d
b0 r
b0 !"
b0 =
b0 O
b0 Z
09
b0 L
b0 S
b1101111 K
b1101111 U
b1101111 X
b0 z
b1101111 #
b1101111 3
b1101111 _
b1101111 %"
b10101011100100110 2
b10101011100100110 ^
b10101011100100110 k
b11000 8
b11000 t
b11000 x
b10100 7
b10100 `
b10100 u
b10100 v
b101 *
1%
